{
  "id": "5531fe8f-9aa7-4b7b-a1d6-d52753ccccde",
  "name": "ArithmeticValues",
  "isOverridable": true,
  "isEnum": false,
  "isRegexp": false,
  "automatedExpansion": false,
  "allowFuzzyExtraction": false
}